<svg width="60" height="60" viewBox="0 0 60 60" fill="none" xmlns="http://www.w3.org/2000/svg">
<g clip-path="url(#clip0)">
<path d="M49.7225 16.4109C48.5772 15.2656 47.9397 13.7426 47.9397 12.1133C47.9397 7.70956 44.3506 4.12042 39.9468 4.12042C38.3293 4.12042 36.7945 3.48288 35.6493 2.33766C32.5324 -0.779221 27.4674 -0.779221 24.3506 2.33766C23.2053 3.48288 21.6823 4.12042 20.053 4.12042C15.6493 4.12042 12.0601 7.70956 12.0601 12.1133C12.0601 13.7308 11.4344 15.2656 10.2774 16.4109C8.76614 17.9221 7.9397 19.9292 7.9397 22.0661C7.9397 24.2031 8.76614 26.2102 10.2774 27.7214C11.4226 28.8666 12.0601 30.3896 12.0601 32.0189C12.0601 35.6434 14.4804 38.7013 17.7862 39.6812L13.1463 57.013L20.1475 53.1169L24.2561 60L28.5418 44.0024C29.0259 44.085 29.5099 44.1322 29.994 44.1322C30.4781 44.1322 30.9621 44.085 31.4462 44.0024L35.7437 59.9882L39.8523 53.1051L46.8535 57.0012L42.2136 39.6694C45.5194 38.6895 47.9397 35.6316 47.9397 32.0071C47.9397 30.3896 48.5772 28.8548 49.7225 27.7096C52.8393 24.6045 52.8393 19.5277 49.7225 16.4109ZM23.5949 55.1122L20.8559 50.5313L16.1924 53.1287L19.7107 40C19.8405 40.0118 19.9586 40.0118 20.0766 40.0118C21.6941 40.0118 23.229 40.6493 24.3742 41.7946C24.5631 41.9835 24.752 42.1488 24.9527 42.314C25.0117 42.3613 25.0707 42.4085 25.1298 42.4557C25.2715 42.562 25.4131 42.6682 25.5666 42.7745C25.6493 42.8335 25.7437 42.8808 25.8264 42.9398C25.9562 43.0106 26.0743 43.0933 26.2042 43.1641C26.3104 43.2231 26.4285 43.2822 26.5347 43.3294C26.582 43.353 26.6528 43.3884 26.7236 43.412L23.5949 55.1122ZM43.8429 53.1287L39.1794 50.5313L36.4403 55.1122L33.3116 43.412C33.3824 43.3766 33.4415 43.3412 33.5123 43.3176C33.6304 43.2586 33.7366 43.2113 33.8547 43.1405C33.9846 43.0697 34.1026 42.9988 34.2207 42.928C34.3151 42.8689 34.3978 42.8217 34.4922 42.7627C34.6339 42.6682 34.7638 42.562 34.9055 42.4557C34.9763 42.4085 35.0471 42.3613 35.1062 42.3022C35.3069 42.137 35.4958 41.9717 35.6847 41.7828C36.8299 40.6375 38.3529 40 39.9822 40C40.0766 40.0118 40.1947 40 40.3246 40L43.8429 53.1287ZM48.3647 26.3636C46.8535 27.8749 46.0271 29.8819 46.0271 32.0189C46.0271 34.9469 43.9491 37.3908 41.1864 37.9693L40.8795 38.0165C40.7142 38.0401 40.5725 38.0638 40.419 38.0756C40.2655 38.0874 40.1003 38.0992 39.9468 38.0992C39.1439 38.0992 38.3647 38.2172 37.6209 38.4416C36.3813 38.8194 35.236 39.4923 34.3033 40.4368C34.138 40.6021 33.9728 40.7438 33.7957 40.8855C33.7366 40.9327 33.6776 40.9681 33.6186 41.0153C33.5005 41.1098 33.3706 41.1924 33.2408 41.2751C33.1817 41.3105 33.1109 41.3577 33.04 41.3932C32.8984 41.4758 32.7567 41.5466 32.615 41.6175C32.556 41.6411 32.5088 41.6647 32.4497 41.7001C32.2726 41.7828 32.0837 41.8536 31.9066 41.9126C31.8712 41.9244 31.824 41.948 31.7886 41.9599L31.7177 41.9835C30.6079 42.3022 29.4155 42.3022 28.3057 41.9835L28.2112 41.9599C28.1758 41.948 28.1522 41.9362 28.1168 41.9244C27.9279 41.8654 27.739 41.7828 27.5501 41.7119C27.5029 41.6883 27.4438 41.6647 27.3966 41.6411C27.2431 41.5702 27.1014 41.4876 26.9598 41.405C26.9007 41.3695 26.8417 41.3341 26.7827 41.2987C26.641 41.2161 26.5111 41.1216 26.3813 41.0272C26.334 40.9917 26.275 40.9563 26.2278 40.9091C26.0507 40.7674 25.8854 40.6139 25.7201 40.4604C24.7756 39.5159 23.6422 38.843 22.4025 38.4652C21.6587 38.2408 20.8795 38.1228 20.0766 38.1228C19.9114 38.1228 19.7579 38.111 19.6044 38.0992C19.4627 38.0874 19.3092 38.0638 19.1439 38.0401L18.837 37.9929C16.0743 37.4144 13.9964 34.9705 13.9964 32.0425C13.9964 29.9055 13.1699 27.8985 11.6587 26.3872C10.5135 25.242 9.87594 23.719 9.87594 22.0897C9.87594 20.4723 10.5135 18.9374 11.6587 17.7922C13.1699 16.281 13.9964 14.2739 13.9964 12.137C13.9964 8.78394 16.7236 6.06848 20.0648 6.06848C22.2018 6.06848 24.2089 5.24203 25.7201 3.73081C26.9007 2.55018 28.4592 1.95986 30.0176 1.95986C31.5761 1.95986 33.1345 2.55018 34.3151 3.73081C35.8264 5.24203 37.8334 6.06848 39.9704 6.06848C43.3234 6.06848 46.0389 8.79575 46.0389 12.137C46.0389 14.2739 46.8653 16.281 48.3765 17.7922C50.7378 20.1417 50.7378 23.9906 48.3647 26.3636Z" fill="#E59324"/>
<path d="M30.006 7.68579C22.0721 7.68579 15.614 14.1439 15.614 22.0778C15.614 30.0116 22.0721 36.4579 30.006 36.4579C37.9399 36.4579 44.398 29.9998 44.398 22.066C44.398 14.1321 37.9399 7.68579 30.006 7.68579ZM30.006 34.5335C23.1347 34.5335 17.5385 28.9373 17.5385 22.066C17.5385 15.1946 23.1347 9.59842 30.006 9.59842C36.8773 9.59842 42.4735 15.1946 42.4735 22.066C42.4735 28.9373 36.8773 34.5335 30.006 34.5335Z" fill="#E59324"/>
<path d="M30.0058 12.2549L27.8688 18.8429H20.9385L26.5465 22.9161L24.4095 29.5041L30.0176 25.4309L35.6256 29.5041L33.4768 22.9161L39.0849 18.8429H32.1545L30.0058 12.2549ZM31.9656 24.4863L30.0058 23.0578L28.0459 24.4863L28.7897 22.1841L26.8299 20.7555H29.2502L29.994 18.4533L30.7378 20.7555H33.1581L31.1982 22.1841L31.9656 24.4863Z" fill="#E59324"/>
</g>
<defs>
<clipPath id="clip0">
<rect width="60" height="60" fill="white"/>
</clipPath>
</defs>
</svg>
