<svg width="50" height="50" viewBox="0 0 50 50" fill="none" xmlns="http://www.w3.org/2000/svg">
<path d="M42.7365 48.0272H7.26357C7.08437 48.0272 6.91251 47.956 6.78579 47.8293C6.65908 47.7026 6.58789 47.5307 6.58789 47.3515V11.5677C6.58789 11.3885 6.65908 11.2167 6.78579 11.09C6.91251 10.9633 7.08437 10.8921 7.26357 10.8921H15.5068V2.64882C15.5068 2.46962 15.578 2.29776 15.7047 2.17105C15.8314 2.04433 16.0033 1.97314 16.1825 1.97314H42.7365C42.9157 1.97314 43.0876 2.04433 43.2143 2.17105C43.341 2.29776 43.4122 2.46962 43.4122 2.64882V47.3515C43.4122 47.5307 43.341 47.7026 43.2143 47.8293C43.0876 47.956 42.9157 48.0272 42.7365 48.0272ZM7.93924 46.6758H42.0609V3.3245H16.8582V11.5677C16.8582 11.7469 16.787 11.9188 16.6603 12.0455C16.5335 12.1722 16.3617 12.2434 16.1825 12.2434H7.93924V46.6758Z" fill="#000000"/>
<path d="M16.1823 12.2433H7.26342C7.12981 12.2432 6.9992 12.2036 6.88811 12.1294C6.77703 12.0551 6.69044 11.9496 6.63932 11.8261C6.58819 11.7027 6.57481 11.5669 6.60087 11.4358C6.62693 11.3048 6.69125 11.1844 6.78572 11.0899L15.7046 2.17097C15.7991 2.07651 15.9195 2.01218 16.0506 1.98612C16.1816 1.96006 16.3174 1.97344 16.4409 2.02457C16.5643 2.0757 16.6699 2.16228 16.7441 2.27337C16.8183 2.38445 16.858 2.51506 16.858 2.64868V11.5676C16.858 11.7468 16.7868 11.9187 16.6601 12.0454C16.5334 12.1721 16.3615 12.2433 16.1823 12.2433ZM8.8945 10.8919H15.5067V4.27976L8.8945 10.8919Z" fill="#000000"/>
<path d="M38.0568 8.75467H21.1649C20.9857 8.75467 20.8139 8.68349 20.6872 8.55677C20.5604 8.43006 20.4893 8.2582 20.4893 8.079C20.4893 7.8998 20.5604 7.72794 20.6872 7.60122C20.8139 7.47451 20.9857 7.40332 21.1649 7.40332H38.0568C38.236 7.40332 38.4079 7.47451 38.5346 7.60122C38.6613 7.72794 38.7325 7.8998 38.7325 8.079C38.7325 8.2582 38.6613 8.43006 38.5346 8.55677C38.4079 8.68349 38.236 8.75467 38.0568 8.75467Z" fill="#000000"/>
<path d="M38.0568 15.523H21.1649C20.9857 15.523 20.8139 15.4518 20.6872 15.3251C20.5604 15.1984 20.4893 15.0265 20.4893 14.8473C20.4893 14.6681 20.5604 14.4962 20.6872 14.3695C20.8139 14.2428 20.9857 14.1716 21.1649 14.1716H38.0568C38.236 14.1716 38.4079 14.2428 38.5346 14.3695C38.6613 14.4962 38.7325 14.6681 38.7325 14.8473C38.7325 15.0265 38.6613 15.1984 38.5346 15.3251C38.4079 15.4518 38.236 15.523 38.0568 15.523Z" fill="#000000"/>
<path d="M38.0571 22.2911H11.9423C11.7631 22.2911 11.5912 22.2199 11.4645 22.0932C11.3378 21.9664 11.2666 21.7946 11.2666 21.6154C11.2666 21.4362 11.3378 21.2643 11.4645 21.1376C11.5912 21.0109 11.7631 20.9397 11.9423 20.9397H38.0571C38.2363 20.9397 38.4082 21.0109 38.5349 21.1376C38.6616 21.2643 38.7328 21.4362 38.7328 21.6154C38.7328 21.7946 38.6616 21.9664 38.5349 22.0932C38.4082 22.2199 38.2363 22.2911 38.0571 22.2911Z" fill="#000000"/>
<path d="M38.0571 29.0601H11.9423C11.7631 29.0601 11.5912 28.9889 11.4645 28.8622C11.3378 28.7355 11.2666 28.5636 11.2666 28.3844C11.2666 28.2052 11.3378 28.0334 11.4645 27.9066C11.5912 27.7799 11.7631 27.7087 11.9423 27.7087H38.0571C38.2363 27.7087 38.4082 27.7799 38.5349 27.9066C38.6616 28.0334 38.7328 28.2052 38.7328 28.3844C38.7328 28.5636 38.6616 28.7355 38.5349 28.8622C38.4082 28.9889 38.2363 29.0601 38.0571 29.0601Z" fill="#000000"/>
<path d="M38.0571 35.8284H11.9423C11.7631 35.8284 11.5912 35.7572 11.4645 35.6305C11.3378 35.5038 11.2666 35.3319 11.2666 35.1527C11.2666 34.9735 11.3378 34.8017 11.4645 34.675C11.5912 34.5482 11.7631 34.4771 11.9423 34.4771H38.0571C38.2363 34.4771 38.4082 34.5482 38.5349 34.675C38.6616 34.8017 38.7328 34.9735 38.7328 35.1527C38.7328 35.3319 38.6616 35.5038 38.5349 35.6305C38.4082 35.7572 38.2363 35.8284 38.0571 35.8284Z" fill="#000000"/>
<path d="M38.0571 42.5967H11.9423C11.7631 42.5967 11.5912 42.5255 11.4645 42.3988C11.3378 42.2721 11.2666 42.1002 11.2666 41.921C11.2666 41.7418 11.3378 41.57 11.4645 41.4433C11.5912 41.3165 11.7631 41.2454 11.9423 41.2454H38.0571C38.2363 41.2454 38.4082 41.3165 38.5349 41.4433C38.6616 41.57 38.7328 41.7418 38.7328 41.921C38.7328 42.1002 38.6616 42.2721 38.5349 42.3988C38.4082 42.5255 38.2363 42.5967 38.0571 42.5967Z" fill="#000000"/>
</svg>
