<svg width="27" height="27" viewBox="0 0 27 27" fill="none" xmlns="http://www.w3.org/2000/svg">
<path d="M14.3072 11.9057L14.3071 1.69871C14.3072 1.03463 13.7705 0.497885 13.1064 0.498041C12.4425 0.498041 11.9057 1.03479 11.9057 1.69872L11.9057 11.9059L1.69874 11.9057C1.03465 11.9059 0.498066 12.4425 0.498066 13.1064C0.49791 13.7705 1.03465 14.3072 1.69874 14.3071L11.9057 14.3072L11.9059 24.5142C11.9057 25.1783 12.4425 25.715 13.1065 25.7149C13.4376 25.715 13.7383 25.5807 13.9557 25.3633C14.173 25.1459 14.3072 24.8454 14.3072 24.5142L14.3071 14.3072L24.5142 14.3072C24.8454 14.3072 25.146 14.173 25.3633 13.9556C25.5807 13.7383 25.7149 13.4377 25.7149 13.1065C25.715 12.4424 25.1783 11.9057 24.5142 11.9058L14.3072 11.9057Z" fill="#727272"/>
</svg>
